main-functions-demo • trisk.analysis
…
After the model has been run, we can inspect the results. TRISK
results can include various metrics such as NPV, PD, trajectories, and
parameters.

# Print the latest TRISK results for different result types
print(get_latest_trisk_result(trisk_output_path = trisk_output_path, result_type = "npv"))
#> Rows: 777 Columns: 19
#> ── Column specification ────────────────────────────────────────────────────────
#> Delimiter: ","
#> chr (11): run_id, company_id, asset_id, company_name, asset_name, sector, te...
#> dbl  (8): net_present_value_baseline, net_present_value_shock, risk_free_rat...
#> 
#> ℹ Use `spec()` to retrieve the full column specification for this data.
#> ℹ Specify the column types or set `show_col_types = FALSE` to quiet this message.
#> # A tibble: 777 × 19
#>    run_id          company_id asset_id company_name asset_name sector technology
#>    <chr>           <chr>      <chr>    <chr>        <chr>      <chr>  <chr>     
#>  1 72828734-7719-… E10000000… P100000… Kobe Steel … Kobe Kako… Steel  BOF-BF    
#>  2 72828734-7719-… E10000000… P100000… Nippon Stee… Nippon Ea… Steel  BOF-BF    
#>  3 72828734-7719-… E10000000… P100000… Nippon Stee… North Nip… Steel  BOF-BF    
#>  4 72828734-7719-… E10000000… P100000… Nippon Stee… Nippon Ea… Steel  BOF-BF    
#>  5 72828734-7719-… E10000000… P100000… Nippon Stee… Nippon Ky… Steel  BOF-BF    
#>  6 72828734-7719-… E10000000… P100000… Nippon Stee… Nippon Ky… Steel  BOF-BF    
#>  7 72828734-7719-… E10000000… P100000… Nippon Stee… Nippon Ea… Steel  BOF-BF    
#>  8 72828734-7719-… E10000000… P100000… Nippon Stee… Nippon Ka… Steel  BOF-BF    
#>  9 72828734-7719-… E10000000… P100000… ArcelorMitt… ArcelorMi… Steel  BOF-BF    
#> 10 72828734-7719-… E10000000… P100000… ArcelorMitt… ArcelorMi… Steel  EAF-MM    
#> # ℹ 767 more rows
#> # ℹ 12 more variables: net_present_value_baseline <dbl>,
#> #   net_present_value_shock <dbl>, baseline_scenario <chr>,
#> #   target_scenario <chr>, scenario_geography <chr>, carbon_price_model <chr>,
#> #   risk_free_rate <dbl>, discount_rate <dbl>, growth_rate <dbl>,
#> #   div_netprofit_prop_coef <dbl>, shock_year <dbl>, market_passthrough <dbl>
print(get_latest_trisk_result(trisk_output_path = trisk_output_path, result_type = "pd"))
#> Rows: 2915 Columns: 17
#> ── Column specification ────────────────────────────────────────────────────────
#> Delimiter: ","
#> chr (8): run_id, company_id, company_name, sector, baseline_scenario, target...
#> dbl (9): term, pd_baseline, pd_shock, risk_free_rate, discount_rate, growth_...
#> 
#> ℹ Use `spec()` to retrieve the full column specification for this data.
#> ℹ Specify the column types or set `show_col_types = FALSE` to quiet this message.
#> # A tibble: 2,915 × 17
#>    run_id              company_id company_name sector  term pd_baseline pd_shock
#>    <chr>               <chr>      <chr>        <chr>  <dbl>       <dbl>    <dbl>
#>  1 72828734-7719-47cb… E10000000… Kobe Steel … Steel      1    4.53e-12  0.00456
#>  2 72828734-7719-47cb… E10000000… Kobe Steel … Steel      2    1.03e- 6  0.0385 
#>  3 72828734-7719-47cb… E10000000… Kobe Steel … Steel      3    6.81e- 5  0.0834 
#>  4 72828734-7719-47cb… E10000000… Kobe Steel … Steel      4    5.75e- 4  0.126  
#>  5 72828734-7719-47cb… E10000000… Kobe Steel … Steel      5    2.12e- 3  0.165  
#>  6 72828734-7719-47cb… E10000000… Nippon Stee… Steel      1    1.41e-11  0.0116 
#>  7 72828734-7719-47cb… E10000000… Nippon Stee… Steel      2    1.87e- 6  0.0638 
#>  8 72828734-7719-47cb… E10000000… Nippon Stee… Steel      3    1.03e- 4  0.119  
#>  9 72828734-7719-47cb… E10000000… Nippon Stee… Steel      4    7.97e- 4  0.168  
#> 10 72828734-7719-47cb… E10000000… Nippon Stee… Steel      5    2.78e- 3  0.209  
#> # ℹ 2,905 more rows
#> # ℹ 10 more variables: baseline_scenario <chr>, target_scenario <chr>,
#> #   scenario_geography <chr>, carbon_price_model <chr>, risk_free_rate <dbl>,
#> #   discount_rate <dbl>, growth_rate <dbl>, div_netprofit_prop_coef <dbl>,
#> #   shock_year <dbl>, market_passthrough <dbl>
print(get_latest_trisk_result(trisk_output_path = trisk_output_path, result_type = "trajectories"))
#> Rows: 30848 Columns: 32
#> ── Column specification ────────────────────────────────────────────────────────
#> Delimiter: ","
#> chr (11): run_id, asset_id, asset_name, company_id, company_name, sector, te...
#> dbl (21): year, production_plan_company_technology, production_baseline_scen...
#> 
#> ℹ Use `spec()` to retrieve the full column specification for this data.
#> ℹ Specify the column types or set `show_col_types = FALSE` to quiet this message.
#> # A tibble: 30,848 × 32
#>    run_id    asset_id asset_name company_id company_name  year sector technology
#>    <chr>     <chr>    <chr>      <chr>      <chr>        <dbl> <chr>  <chr>     
#>  1 72828734… GASTAGO… NA         100748a83… NA            2020 Steel  EAF-BF    
#>  2 72828734… GASTAGO… NA         100748a83… NA            2021 Steel  EAF-BF    
#>  3 72828734… GASTAGO… NA         100748a83… NA            2022 Steel  EAF-BF    
#>  4 72828734… GASTAGO… NA         100748a83… NA            2023 Steel  EAF-BF    
#>  5 72828734… GASTAGO… NA         100748a83… NA            2024 Steel  EAF-BF    
#>  6 72828734… GASTAGO… NA         100748a83… NA            2025 Steel  EAF-BF    
#>  7 72828734… GASTAGO… NA         100748a83… NA            2026 Steel  EAF-BF    
#>  8 72828734… GASTAGO… NA         100748a83… NA            2027 Steel  EAF-BF    
#>  9 72828734… GASTAGO… NA         100748a83… NA            2028 Steel  EAF-BF    
#> 10 72828734… GASTAGO… NA         100748a83… NA            2029 Steel  EAF-BF    
#> # ℹ 30,838 more rows
#> # ℹ 24 more variables: production_plan_company_technology <dbl>,
#> #   production_baseline_scenario <dbl>, production_target_scenario <dbl>,
#> #   production_shock_scenario <dbl>, pd <dbl>, net_profit_margin <dbl>,
#> #   debt_equity_ratio <dbl>, volatility <dbl>, scenario_price_baseline <dbl>,
#> #   price_shock_scenario <dbl>, net_profits_baseline_scenario <dbl>,
#> #   net_profits_shock_scenario <dbl>, …
…
#>  6 c4c34dfd-d591-… E10000100… P100000… Cleveland-C… Cleveland… Steel  BOF-BF    
#>  7 c4c34dfd-d591-… E10000100… P100000… Cleveland-C… Cleveland… Steel  BOF-BF    
#>  8 c4c34dfd-d591-… E10000100… P100000… Cleveland-C… Cleveland… Steel  BOF-BF    
#>  9 c4c34dfd-d591-… E10000100… P100000… Cleveland-C… Cleveland… Steel  BOF-BF    
#> 10 c4c34dfd-d591-… E10000100… P100000… Cleveland-C… Cleveland… Steel  BOF-BF    
#> 11 c4c34dfd-d591-… E10000100… P100000… Cleveland-C… Cleveland… Steel  BOF-BF    
#> 12 c4c34dfd-d591-… E10000100… P100000… Cleveland-C… Cleveland… Steel  EAF-DRI   
#> 13 c4c34dfd-d591-… E10000101… P100000… Acindar Ind… ArcelorMi… Steel  EAF-DRI   
#> 14 c4c34dfd-d591-… E10000101… P100000… Nucor Steel… Nucor Ste… Steel  EAF-DRI   
#> 15 c4c34dfd-d591-… E10000101… P100000… Steel Dynam… Steel Dyn… Steel  EAF-DRI   
#> # ℹ 2 more variables: net_present_value_baseline <dbl>,
#> #   net_present_value_shock <dbl>
print(single_filtered_results["pd"])
#> $pd
#> # A tibble: 25 × 7
#>    run_id              company_id company_name sector  term pd_baseline pd_shock
#>    <chr>               <chr>      <chr>        <chr>  <int>       <dbl>    <dbl>
#>  1 c4c34dfd-d591-4a89… E10000000… United Stat… Steel      1    1.41e-11  0.110  
#>  2 c4c34dfd-d591-4a89… E10000000… United Stat… Steel      2    1.87e- 6  0.216  
#>  3 c4c34dfd-d591-4a89… E10000000… United Stat… Steel      3    1.03e- 4  0.282  
#>  4 c4c34dfd-d591-4a89… E10000000… United Stat… Steel      4    7.97e- 4  0.329  
#>  5 c4c34dfd-d591-4a89… E10000000… United Stat… Steel      5    2.78e- 3  0.365  
#>  6 c4c34dfd-d591-4a89… E10000000… Siderca SAI… Steel      1    3.57e-12  0.00173
#>  7 c4c34dfd-d591-4a89… E10000000… Siderca SAI… Steel      2    9.12e- 7  0.0231 
#>  8 c4c34dfd-d591-4a89… E10000000… Siderca SAI… Steel      3    6.27e- 5  0.0587 
#>  9 c4c34dfd-d591-4a89… E10000000… Siderca SAI… Steel      4    5.41e- 4  0.0962 
#> 10 c4c34dfd-d591-4a89… E10000000… Siderca SAI… Steel      5    2.01e- 3  0.132  
#> # ℹ 15 more rows
print(single_filtered_results["trajectories"])
#> $trajectories
#> # A tibble: 800 × 22
#>    run_id    asset_id asset_name company_id company_name  year sector technology
#>    <chr>     <chr>    <chr>      <chr>      <chr>        <dbl> <chr>  <chr>     
#>  1 c4c34dfd… GASTUSA… NA         d6ca6f482… NA            2020 Steel  BOF-BF    
#>  2 c4c34dfd… GASTUSA… NA         d6ca6f482… NA            2021 Steel  BOF-BF    
#>  3 c4c34dfd… GASTUSA… NA         d6ca6f482… NA            2022 Steel  BOF-BF    
#>  4 c4c34dfd… GASTUSA… NA         d6ca6f482… NA            2023 Steel  BOF-BF    
#>  5 c4c34dfd… GASTUSA… NA         d6ca6f482… NA            2024 Steel  BOF-BF    
#>  6 c4c34dfd… GASTUSA… NA         d6ca6f482… NA            2025 Steel  BOF-BF    
#>  7 c4c34dfd… GASTUSA… NA         d6ca6f482… NA            2026 Steel  BOF-BF    
#>  8 c4c34dfd… GASTUSA… NA         d6ca6f482… NA            2027 Steel  BOF-BF    
#>  9 c4c34dfd… GASTUSA… NA         d6ca6f482… NA            2028 Steel  BOF-BF    
#> 10 c4c34dfd… GASTUSA… NA         d6ca6f482… NA            2029 Steel  BOF-BF    
#> # ℹ 790 more rows
#> # ℹ 14 more variables: production_plan_company_technology <dbl>,
#> #   production_baseline_scenario <dbl>, production_target_scenario <dbl>,
#> #   production_shock_scenario <dbl>, pd <dbl>, net_profit_margin <dbl>,
#> #   debt_equity_ratio <dbl>, volatility <dbl>, scenario_price_baseline <dbl>,
#> #   price_shock_scenario <dbl>, net_profits_baseline_scenario <dbl>,
#> #   net_profits_shock_scenario <dbl>, …
…
# Print sensitivity analysis results for different result types
print(sensitivity_analysis_results["npv"])
#> $npv
#> # A tibble: 1,555 × 9
#>    run_id          company_id asset_id company_name asset_name sector technology
#>    <chr>           <chr>      <chr>    <chr>        <chr>      <chr>  <chr>     
#>  1 30bb55a0-559e-… E10000000… P100000… Kobe Steel … Kobe Kako… Steel  BOF-BF    
#>  2 30bb55a0-559e-… E10000000… P100000… Nippon Stee… Nippon Ea… Steel  BOF-BF    
#>  3 30bb55a0-559e-… E10000000… P100000… Nippon Stee… North Nip… Steel  BOF-BF    
#>  4 30bb55a0-559e-… E10000000… P100000… Nippon Stee… Nippon Ea… Steel  BOF-BF    
#>  5 30bb55a0-559e-… E10000000… P100000… Nippon Stee… Nippon Ky… Steel  BOF-BF    
#>  6 30bb55a0-559e-… E10000000… P100000… Nippon Stee… Nippon Ky… Steel  BOF-BF    
#>  7 30bb55a0-559e-… E10000000… P100000… Nippon Stee… Nippon Ea… Steel  BOF-BF    
#>  8 30bb55a0-559e-… E10000000… P100000… Nippon Stee… Nippon Ka… Steel  BOF-BF    
#>  9 30bb55a0-559e-… E10000000… P100000… ArcelorMitt… ArcelorMi… Steel  BOF-BF    
#> 10 30bb55a0-559e-… E10000000… P100000… ArcelorMitt… ArcelorMi… Steel  EAF-MM    
#> # ℹ 1,545 more rows
#> # ℹ 2 more variables: net_present_value_baseline <dbl>,
#> #   net_present_value_shock <dbl>
print(sensitivity_analysis_results["pd"])
#> $pd
#> # A tibble: 6,190 × 7
#>    run_id              company_id company_name sector  term pd_baseline pd_shock
#>    <chr>               <chr>      <chr>        <chr>  <int>       <dbl>    <dbl>
#>  1 30bb55a0-559e-4b44… E10000000… Kobe Steel … Steel      1    4.53e-12  0.00456
#>  2 30bb55a0-559e-4b44… E10000000… Kobe Steel … Steel      2    1.03e- 6  0.0385 
#>  3 30bb55a0-559e-4b44… E10000000… Kobe Steel … Steel      3    6.81e- 5  0.0834 
#>  4 30bb55a0-559e-4b44… E10000000… Kobe Steel … Steel      4    5.75e- 4  0.126  
#>  5 30bb55a0-559e-4b44… E10000000… Kobe Steel … Steel      5    2.12e- 3  0.165  
#>  6 30bb55a0-559e-4b44… E10000000… Nippon Stee… Steel      1    1.41e-11  0.0116 
#>  7 30bb55a0-559e-4b44… E10000000… Nippon Stee… Steel      2    1.87e- 6  0.0638 
#>  8 30bb55a0-559e-4b44… E10000000… Nippon Stee… Steel      3    1.03e- 4  0.119  
#>  9 30bb55a0-559e-4b44… E10000000… Nippon Stee… Steel      4    7.97e- 4  0.168  
#> 10 30bb55a0-559e-4b44… E10000000… Nippon Stee… Steel      5    2.78e- 3  0.209  
#> # ℹ 6,180 more rows
print(sensitivity_analysis_results["trajectories"])
#> $trajectories
#> # A tibble: 61,696 × 22
#>    run_id    asset_id asset_name company_id company_name  year sector technology
#>    <chr>     <chr>    <chr>      <chr>      <chr>        <dbl> <chr>  <chr>     
#>  1 30bb55a0… GASTAGO… NA         100748a83… NA            2020 Steel  EAF-BF    
#>  2 30bb55a0… GASTAGO… NA         100748a83… NA            2021 Steel  EAF-BF    
#>  3 30bb55a0… GASTAGO… NA         100748a83… NA            2022 Steel  EAF-BF    
#>  4 30bb55a0… GASTAGO… NA         100748a83… NA            2023 Steel  EAF-BF    
#>  5 30bb55a0… GASTAGO… NA         100748a83… NA            2024 Steel  EAF-BF    
#>  6 30bb55a0… GASTAGO… NA         100748a83… NA            2025 Steel  EAF-BF    
#>  7 30bb55a0… GASTAGO… NA         100748a83… NA            2026 Steel  EAF-BF    
#>  8 30bb55a0… GASTAGO… NA         100748a83… NA            2027 Steel  EAF-BF    
#>  9 30bb55a0… GASTAGO… NA         100748a83… NA            2028 Steel  EAF-BF    
#> 10 30bb55a0… GASTAGO… NA         100748a83… NA            2029 Steel  EAF-BF    
#> # ℹ 61,686 more rows
#> # ℹ 14 more variables: production_plan_company_technology <dbl>,
#> #   production_baseline_scenario <dbl>, production_target_scenario <dbl>,
#> #   production_shock_scenario <dbl>, pd <dbl>, net_profit_margin <dbl>,
#> #   debt_equity_ratio <dbl>, volatility <dbl>, scenario_price_baseline <dbl>,
#> #   price_shock_scenario <dbl>, net_profits_baseline_scenario <dbl>,
#> #   net_profits_shock_scenario <dbl>, …
…
# Print sensitivity analysis results for the filtered subset
print(sensitivity_analysis_results_on_filtered_assets["npv"])
#> $npv
#> # A tibble: 30 × 9
#>    run_id          company_id asset_id company_name asset_name sector technology
#>    <chr>           <chr>      <chr>    <chr>        <chr>      <chr>  <chr>     
#>  1 1101c4da-d7e8-… E10000000… P100000… ArcelorMitt… ArcelorMi… Steel  EAF-DRI   
#>  2 1101c4da-d7e8-… E10000000… P100000… United Stat… U.S. Stee… Steel  BOF-BF    
#>  3 1101c4da-d7e8-… E10000000… P100000… United Stat… U.S. Stee… Steel  BOF-BF    
#>  4 1101c4da-d7e8-… E10000000… P100000… Siderca SAI… TenarisSi… Steel  EAF-DRI   
#>  5 1101c4da-d7e8-… E10000013… P100000… Ternium Arg… Ternium S… Steel  BOF-BF    
#>  6 1101c4da-d7e8-… E10000100… P100000… Cleveland-C… Cleveland… Steel  BOF-BF    
#>  7 1101c4da-d7e8-… E10000100… P100000… Cleveland-C… Cleveland… Steel  BOF-BF    
#>  8 1101c4da-d7e8-… E10000100… P100000… Cleveland-C… Cleveland… Steel  BOF-BF    
#>  9 1101c4da-d7e8-… E10000100… P100000… Cleveland-C… Cleveland… Steel  BOF-BF    
#> 10 1101c4da-d7e8-… E10000100… P100000… Cleveland-C… Cleveland… Steel  BOF-BF    
#> # ℹ 20 more rows
#> # ℹ 2 more variables: net_present_value_baseline <dbl>,
#> #   net_present_value_shock <dbl>
print(sensitivity_analysis_results_on_filtered_assets["pd"])
#> $pd
#> # A tibble: 65 × 7
#>    run_id              company_id company_name sector  term pd_baseline pd_shock
#>    <chr>               <chr>      <chr>        <chr>  <int>       <dbl>    <dbl>
#>  1 1101c4da-d7e8-4d7d… E10000000… United Stat… Steel      1    1.41e-11  0.110  
#>  2 1101c4da-d7e8-4d7d… E10000000… United Stat… Steel      2    1.87e- 6  0.216  
#>  3 1101c4da-d7e8-4d7d… E10000000… United Stat… Steel      3    1.03e- 4  0.282  
#>  4 1101c4da-d7e8-4d7d… E10000000… United Stat… Steel      4    7.97e- 4  0.329  
#>  5 1101c4da-d7e8-4d7d… E10000000… United Stat… Steel      5    2.78e- 3  0.365  
#>  6 1101c4da-d7e8-4d7d… E10000000… Siderca SAI… Steel      1    3.57e-12  0.00173
#>  7 1101c4da-d7e8-4d7d… E10000000… Siderca SAI… Steel      2    9.12e- 7  0.0231 
#>  8 1101c4da-d7e8-4d7d… E10000000… Siderca SAI… Steel      3    6.27e- 5  0.0587 
#>  9 1101c4da-d7e8-4d7d… E10000000… Siderca SAI… Steel      4    5.41e- 4  0.0962 
#> 10 1101c4da-d7e8-4d7d… E10000000… Siderca SAI… Steel      5    2.01e- 3  0.132  
#> # ℹ 55 more rows
print(sensitivity_analysis_results_on_filtered_assets["trajectories"])
#> $trajectories
#> # A tibble: 1,600 × 22
#>    run_id    asset_id asset_name company_id company_name  year sector technology
#>    <chr>     <chr>    <chr>      <chr>      <chr>        <dbl> <chr>  <chr>     
#>  1 1101c4da… GASTUSA… NA         d6ca6f482… NA            2020 Steel  BOF-BF    
#>  2 1101c4da… GASTUSA… NA         d6ca6f482… NA            2021 Steel  BOF-BF    
#>  3 1101c4da… GASTUSA… NA         d6ca6f482… NA            2022 Steel  BOF-BF    
#>  4 1101c4da… GASTUSA… NA         d6ca6f482… NA            2023 Steel  BOF-BF    
#>  5 1101c4da… GASTUSA… NA         d6ca6f482… NA            2024 Steel  BOF-BF    
#>  6 1101c4da… GASTUSA… NA         d6ca6f482… NA            2025 Steel  BOF-BF    
#>  7 1101c4da… GASTUSA… NA         d6ca6f482… NA            2026 Steel  BOF-BF    
#>  8 1101c4da… GASTUSA… NA         d6ca6f482… NA            2027 Steel  BOF-BF    
#>  9 1101c4da… GASTUSA… NA         d6ca6f482… NA            2028 Steel  BOF-BF    
#> 10 1101c4da… GASTUSA… NA         d6ca6f482… NA            2029 Steel  BOF-BF    
#> # ℹ 1,590 more rows
#> # ℹ 14 more variables: production_plan_company_technology <dbl>,
#> #   production_baseline_scenario <dbl>, production_target_scenario <dbl>,
#> #   production_shock_scenario <dbl>, pd <dbl>, net_profit_margin <dbl>,
#> #   debt_equity_ratio <dbl>, volatility <dbl>, scenario_price_baseline <dbl>,
#> #   price_shock_scenario <dbl>, net_profits_baseline_scenario <dbl>,
#> #   net_profits_shock_scenario <dbl>, …
…
