sensitivity-analysis • trisk.analysis
…
#>  4 1ac229ea-f310-… 104        104      Company 4    Company 4  Power  Renewable…
#>  5 1ac229ea-f310-… 105        105      Company 5    Company 5  Power  CoalCap   
#>  6 1ac229ea-f310-… 105        105      Company 5    Company 5  Power  OilCap    
#>  7 1ac229ea-f310-… 105        105      Company 5    Company 5  Power  Renewable…
#>  8 9f1bdecf-e677-… 101        101      Company 1    Company 1  Oil&G… Gas       
#>  9 9f1bdecf-e677-… 102        102      Company 2    Company 2  Coal   Coal      
#> 10 9f1bdecf-e677-… 103        103      Company 3    Company 3  Oil&G… Gas       
#> 11 9f1bdecf-e677-… 104        104      Company 4    Company 4  Power  Renewable…
#> 12 9f1bdecf-e677-… 105        105      Company 5    Company 5  Power  CoalCap   
#> 13 9f1bdecf-e677-… 105        105      Company 5    Company 5  Power  OilCap    
#> 14 9f1bdecf-e677-… 105        105      Company 5    Company 5  Power  Renewable…
#> # ℹ 2 more variables: net_present_value_baseline <dbl>,
#> #   net_present_value_shock <dbl>
print(sensitivity_analysis_results$pd)
#> # A tibble: 50 × 7
#>    run_id              company_id company_name sector  term pd_baseline pd_shock
#>    <chr>               <chr>      <chr>        <chr>  <int>       <dbl>    <dbl>
#>  1 1ac229ea-f310-4c7a… 101        Company 1    Oil&G…     1    0          0.0383
#>  2 1ac229ea-f310-4c7a… 101        Company 1    Oil&G…     2    2.82e- 9   0.112 
#>  3 1ac229ea-f310-4c7a… 101        Company 1    Oil&G…     3    1.14e- 6   0.168 
#>  4 1ac229ea-f310-4c7a… 101        Company 1    Oil&G…     4    2.37e- 5   0.210 
#>  5 1ac229ea-f310-4c7a… 101        Company 1    Oil&G…     5    1.50e- 4   0.243 
#>  6 1ac229ea-f310-4c7a… 102        Company 2    Coal       1    9.71e-14   0.0198
#>  7 1ac229ea-f310-4c7a… 102        Company 2    Coal       2    1.44e- 7   0.0826
#>  8 1ac229ea-f310-4c7a… 102        Company 2    Coal       3    1.77e- 5   0.140 
#>  9 1ac229ea-f310-4c7a… 102        Company 2    Coal       4    2.05e- 4   0.188 
#> 10 1ac229ea-f310-4c7a… 102        Company 2    Coal       5    9.11e- 4   0.227 
#> # ℹ 40 more rows
print(sensitivity_analysis_results$trajectories)
#> # A tibble: 420 × 22
#>    run_id    asset_id asset_name company_id company_name  year sector technology
#>    <chr>     <chr>    <chr>      <chr>      <chr>        <dbl> <chr>  <chr>     
#>  1 1ac229ea… 101      Company 1  101        Company 1     2022 Oil&G… Gas       
#>  2 1ac229ea… 101      Company 1  101        Company 1     2023 Oil&G… Gas       
#>  3 1ac229ea… 101      Company 1  101        Company 1     2024 Oil&G… Gas       
#>  4 1ac229ea… 101      Company 1  101        Company 1     2025 Oil&G… Gas       
#>  5 1ac229ea… 101      Company 1  101        Company 1     2026 Oil&G… Gas       
#>  6 1ac229ea… 101      Company 1  101        Company 1     2027 Oil&G… Gas       
#>  7 1ac229ea… 101      Company 1  101        Company 1     2028 Oil&G… Gas       
#>  8 1ac229ea… 101      Company 1  101        Company 1     2029 Oil&G… Gas       
#>  9 1ac229ea… 101      Company 1  101        Company 1     2030 Oil&G… Gas       
#> 10 1ac229ea… 101      Company 1  101        Company 1     2031 Oil&G… Gas       
#> # ℹ 410 more rows
#> # ℹ 14 more variables: production_plan_company_technology <dbl>,
#> #   production_baseline_scenario <dbl>, production_target_scenario <dbl>,
#> #   production_shock_scenario <dbl>, pd <dbl>, net_profit_margin <dbl>,
#> #   debt_equity_ratio <dbl>, volatility <dbl>, scenario_price_baseline <dbl>,
#> #   price_shock_scenario <dbl>, net_profits_baseline_scenario <dbl>,
#> #   net_profits_shock_scenario <dbl>, …
…
#>  4 1ac229ea-f310-… 104        104      Company 4    Company 4  Power  Renewable…
#>  5 1ac229ea-f310-… 105        105      Company 5    Company 5  Power  CoalCap   
#>  6 1ac229ea-f310-… 105        105      Company 5    Company 5  Power  OilCap    
#>  7 1ac229ea-f310-… 105        105      Company 5    Company 5  Power  Renewable…
#>  8 9f1bdecf-e677-… 101        101      Company 1    Company 1  Oil&G… Gas       
#>  9 9f1bdecf-e677-… 102        102      Company 2    Company 2  Coal   Coal      
#> 10 9f1bdecf-e677-… 103        103      Company 3    Company 3  Oil&G… Gas       
#> 11 9f1bdecf-e677-… 104        104      Company 4    Company 4  Power  Renewable…
#> 12 9f1bdecf-e677-… 105        105      Company 5    Company 5  Power  CoalCap   
#> 13 9f1bdecf-e677-… 105        105      Company 5    Company 5  Power  OilCap    
#> 14 9f1bdecf-e677-… 105        105      Company 5    Company 5  Power  Renewable…
#> # ℹ 2 more variables: net_present_value_baseline <dbl>,
#> #   net_present_value_shock <dbl>
print(sensitivity_analysis_results$pd)
#> # A tibble: 50 × 7
#>    run_id              company_id company_name sector  term pd_baseline pd_shock
#>    <chr>               <chr>      <chr>        <chr>  <int>       <dbl>    <dbl>
#>  1 1ac229ea-f310-4c7a… 101        Company 1    Oil&G…     1    0          0.0383
#>  2 1ac229ea-f310-4c7a… 101        Company 1    Oil&G…     2    2.82e- 9   0.112 
#>  3 1ac229ea-f310-4c7a… 101        Company 1    Oil&G…     3    1.14e- 6   0.168 
#>  4 1ac229ea-f310-4c7a… 101        Company 1    Oil&G…     4    2.37e- 5   0.210 
#>  5 1ac229ea-f310-4c7a… 101        Company 1    Oil&G…     5    1.50e- 4   0.243 
#>  6 1ac229ea-f310-4c7a… 102        Company 2    Coal       1    9.71e-14   0.0198
#>  7 1ac229ea-f310-4c7a… 102        Company 2    Coal       2    1.44e- 7   0.0826
#>  8 1ac229ea-f310-4c7a… 102        Company 2    Coal       3    1.77e- 5   0.140 
#>  9 1ac229ea-f310-4c7a… 102        Company 2    Coal       4    2.05e- 4   0.188 
#> 10 1ac229ea-f310-4c7a… 102        Company 2    Coal       5    9.11e- 4   0.227 
#> # ℹ 40 more rows
print(sensitivity_analysis_results$trajectories)
#> # A tibble: 420 × 22
#>    run_id    asset_id asset_name company_id company_name  year sector technology
#>    <chr>     <chr>    <chr>      <chr>      <chr>        <dbl> <chr>  <chr>     
#>  1 1ac229ea… 101      Company 1  101        Company 1     2022 Oil&G… Gas       
#>  2 1ac229ea… 101      Company 1  101        Company 1     2023 Oil&G… Gas       
#>  3 1ac229ea… 101      Company 1  101        Company 1     2024 Oil&G… Gas       
#>  4 1ac229ea… 101      Company 1  101        Company 1     2025 Oil&G… Gas       
#>  5 1ac229ea… 101      Company 1  101        Company 1     2026 Oil&G… Gas       
#>  6 1ac229ea… 101      Company 1  101        Company 1     2027 Oil&G… Gas       
#>  7 1ac229ea… 101      Company 1  101        Company 1     2028 Oil&G… Gas       
#>  8 1ac229ea… 101      Company 1  101        Company 1     2029 Oil&G… Gas       
#>  9 1ac229ea… 101      Company 1  101        Company 1     2030 Oil&G… Gas       
#> 10 1ac229ea… 101      Company 1  101        Company 1     2031 Oil&G… Gas       
#> # ℹ 410 more rows
#> # ℹ 14 more variables: production_plan_company_technology <dbl>,
#> #   production_baseline_scenario <dbl>, production_target_scenario <dbl>,
#> #   production_shock_scenario <dbl>, pd <dbl>, net_profit_margin <dbl>,
#> #   debt_equity_ratio <dbl>, volatility <dbl>, scenario_price_baseline <dbl>,
#> #   price_shock_scenario <dbl>, net_profits_baseline_scenario <dbl>,
#> #   net_profits_shock_scenario <dbl>, …
…
